<?xml version="1.0" encoding="UTF-8" standalone="no"?>
<!-- Created with Inkscape (http://www.inkscape.org/) -->

<svg
   xmlns:dc="http://purl.org/dc/elements/1.1/"
   xmlns:cc="http://creativecommons.org/ns#"
   xmlns:rdf="http://www.w3.org/1999/02/22-rdf-syntax-ns#"
   xmlns:svg="http://www.w3.org/2000/svg"
   xmlns="http://www.w3.org/2000/svg"
   xmlns:sodipodi="http://sodipodi.sourceforge.net/DTD/sodipodi-0.dtd"
   xmlns:inkscape="http://www.inkscape.org/namespaces/inkscape"
   width="37.711662mm"
   height="66.549988mm"
   viewBox="0 0 37.711662 66.549988"
   version="1.1"
   id="svg1409"
   inkscape:version="0.92.2 2405546, 2018-03-11"
   sodipodi:docname="error.svg">
  <defs
     id="defs1403" />
  <sodipodi:namedview
     id="base"
     pagecolor="#ffffff"
     bordercolor="#666666"
     borderopacity="1.0"
     inkscape:pageopacity="0.0"
     inkscape:pageshadow="2"
     inkscape:zoom="0.35"
     inkscape:cx="-125.87673"
     inkscape:cy="-199.95053"
     inkscape:document-units="mm"
     inkscape:current-layer="layer1"
     showgrid="false"
     fit-margin-top="0"
     fit-margin-left="0"
     fit-margin-right="0"
     fit-margin-bottom="0"
     inkscape:window-width="1366"
     inkscape:window-height="717"
     inkscape:window-x="0"
     inkscape:window-y="28"
     inkscape:window-maximized="1" />
  <metadata
     id="metadata1406">
    <rdf:RDF>
      <cc:Work
         rdf:about="">
        <dc:format>image/svg+xml</dc:format>
        <dc:type
           rdf:resource="http://purl.org/dc/dcmitype/StillImage" />
        <dc:title></dc:title>
      </cc:Work>
    </rdf:RDF>
  </metadata>
  <g
     inkscape:label="Layer 1"
     inkscape:groupmode="layer"
     id="layer1"
     transform="translate(-80.929884,-27.867862)">
    <g
       style="stroke-width:2"
       transform="matrix(0.04888308,0,0,0.04888308,87.895828,46.077926)"
       id="g2104">
      <g
         style="stroke-width:2"
         id="g2045">
        <g
           style="stroke-width:2"
           id="g2043">
          <path
             style="fill:#ffffff;stroke-width:2"
             inkscape:connector-curvature="0"
             d="m 243.225,333.382 c -13.6,0 -25,11.4 -25,25 0,13.6 11.4,25 25,25 13.1,0 25,-11.4 24.4,-24.4 0.6,-14.3 -10.7,-25.6 -24.4,-25.6 z"
             id="path2037" />
          <path
             style="fill:#ffffff;stroke-width:2"
             inkscape:connector-curvature="0"
             d="m 474.625,421.982 c 15.7,-27.1 15.8,-59.4 0.2,-86.4 l -156.6,-271.2 c -15.5,-27.3 -43.5,-43.5 -74.9,-43.5 -31.4,0 -59.4,16.3 -74.9,43.4 l -156.8,271.5 c -15.6,27.3 -15.5,59.8 0.3,86.9 15.6,26.8 43.5,42.9 74.7,42.9 h 312.8 c 31.3,0 59.4,-16.3 75.2,-43.6 z m -34,-19.6 c -8.7,15 -24.1,23.9 -41.3,23.9 h -312.8 c -17,0 -32.3,-8.7 -40.8,-23.4 -8.6,-14.9 -8.7,-32.7 -0.1,-47.7 l 156.8,-271.4 c 8.5,-14.9 23.7,-23.7 40.9,-23.7 17.1,0 32.4,8.9 40.9,23.8 l 156.7,271.4 c 8.4,14.6 8.3,32.2 -0.3,47.1 z"
             id="path2039" />
          <path
             style="fill:#ffffff;stroke-width:2"
             inkscape:connector-curvature="0"
             d="m 237.025,157.882 c -11.9,3.4 -19.3,14.2 -19.3,27.3 0.6,7.9 1.1,15.9 1.7,23.8 1.7,30.1 3.4,59.6 5.1,89.7 0.6,10.2 8.5,17.6 18.7,17.6 10.2,0 18.2,-7.9 18.7,-18.2 0,-6.2 0,-11.9 0.6,-18.2 1.1,-19.3 2.3,-38.6 3.4,-57.9 0.6,-12.5 1.7,-25 2.3,-37.5 0,-4.5 -0.6,-8.5 -2.3,-12.5 -5.1,-11.2 -17,-16.9 -28.9,-14.1 z"
             id="path2041" />
        </g>
      </g>
      <g
         style="stroke-width:2"
         id="g2047" />
      <g
         style="stroke-width:2"
         id="g2049" />
      <g
         style="stroke-width:2"
         id="g2051" />
      <g
         style="stroke-width:2"
         id="g2053" />
      <g
         style="stroke-width:2"
         id="g2055" />
      <g
         style="stroke-width:2"
         id="g2057" />
      <g
         style="stroke-width:2"
         id="g2059" />
      <g
         style="stroke-width:2"
         id="g2061" />
      <g
         style="stroke-width:2"
         id="g2063" />
      <g
         style="stroke-width:2"
         id="g2065" />
      <g
         style="stroke-width:2"
         id="g2067" />
      <g
         style="stroke-width:2"
         id="g2069" />
      <g
         style="stroke-width:2"
         id="g2071" />
      <g
         style="stroke-width:2"
         id="g2073" />
      <g
         style="stroke-width:2"
         id="g2075" />
    </g>
    <g
       style="fill:#ffffff;stroke-width:2"
       transform="matrix(1.1091665,0,0,1.1091665,80.929884,27.867862)"
       id="g2732-4">
      <path
         style="fill:#ffffff;stroke-width:2"
         id="path2670-3"
         d="m 17,49 c -2.206,0 -4,1.794 -4,4 0,2.206 1.794,4 4,4 2.206,0 4,-1.794 4,-4 0,-2.206 -1.794,-4 -4,-4 z m 0,6 c -1.103,0 -2,-0.897 -2,-2 0,-1.103 0.897,-2 2,-2 1.103,0 2,0.897 2,2 0,1.103 -0.897,2 -2,2 z"
         inkscape:connector-curvature="0" />
      <path
         style="fill:#ffffff;stroke-width:2"
         id="path2672-1"
         d="m 13,5 h 4 C 17.552,5 18,4.553 18,4 18,3.447 17.552,3 17,3 h -4 c -0.552,0 -1,0.447 -1,1 0,0.553 0.448,1 1,1 z"
         inkscape:connector-curvature="0" />
      <path
         style="fill:#ffffff;stroke-width:2"
         id="path2674-4"
         d="m 20,5 h 1 C 21.552,5 22,4.553 22,4 22,3.447 21.552,3 21,3 h -1 c -0.552,0 -1,0.447 -1,1 0,0.553 0.448,1 1,1 z"
         inkscape:connector-curvature="0" />
      <path
         style="fill:#ffffff;stroke-width:2"
         id="path2692-6"
         d="M 34,55.595 V 54.049 53.137 50.4 49.487 46.75 45.838 43.1 42.187 39.45 38.538 35.8 34.887 32.15 31.238 28.857 27.154 4.405 C 34,1.977 32.024,0 29.595,0 H 4.405 C 1.976,0 0,1.977 0,4.405 V 55.594 C 0,58.023 1.976,60 4.405,60 h 25.189 0.5 C 32.030388,60 34,57.980248 34,55.595 Z M 2,8 h 30 v 19 1.5 2.737 0.912 2.737 0.914 2.737 0.912 2.737 V 43.1 45.837 46 H 2 Z M 4.405,2 H 29.594 C 30.921,2 32,3.079 32,4.405 V 6 H 2 V 4.405 C 2,3.079 3.079,2 4.405,2 Z m 25.19,56 H 4.405 C 3.079,58 2,56.921 2,55.595 V 48 h 30 v 1.486 0.913 2.737 0.912 1.546 c 0,0.309 -0.064,0.603 -0.17,0.874 -0.068,0.173 -0.153,0.338 -0.259,0.491 C 31.137,57.587 30.414,58 29.595,58 Z"
         inkscape:connector-curvature="0"
         sodipodi:nodetypes="cccccccccccccccccsssssscccccccccccccccccccsssccsssssccccccsccs" />
    </g>
  </g>
</svg>
